# File produced by Open Asset Import Library (http://www.assimp.sf.net)
# (assimp v5.0.0)

mtllib result.mtl

# 294 vertex positions
v  -2.6856422 -2.363821 -0.31971478
v  -2.6856422 0.67673856 -2.9360094
v  -2.6856422 0.46460664 -3.1481414
v  -2.6856422 -2.1516891 -0.10758257
v  -11.115118 -2.363821 -0.31971478
v  -11.115118 -2.1516891 -0.10758257
v  -11.115118 0.46460664 -3.1481414
v  -11.115118 0.67673856 -2.9360094
v  5.9171743 -3.4496078 0.76607132
v  -14.382825 -3.4496078 0.76607132
v  -14.382825 1.5503932 -4.2339277
v  5.9171743 1.5503932 -4.2339277
v  5.9171743 -3.4496102 15.766072
v  -14.382825 -3.4496102 15.766072
v  5.9171743 1.55039 15.766072
v  -14.382825 1.55039 15.766072
v  -9.1192513 -0.4162544 -2.8240571
v  -9.0861502 -0.52852982 -2.9239137
v  -9.0861502 -0.42246383 -2.8178477
v  -8.9624624 -0.40137917 -2.8389323
v  -8.9885502 -0.51844716 -2.9339964
v  -8.9624624 -0.50744516 -2.9449983
v  -8.9885502 -0.41238117 -2.8279305
v  -9.0188017 -0.42017227 -2.8201392
v  -9.0188017 -0.52623826 -2.9262052
v  -9.0519533 -0.52981144 -2.9226322
v  -9.0519533 -0.42374545 -2.816566
v  -9.1581383 -0.31738049 -3.1350632
v  -9.1809597 -0.22548956 -3.014822
v  -9.1581383 -0.2113145 -3.0289969
v  -9.1809597 -0.33155555 -3.120888
v  -9.2007389 -0.3495183 -3.1029253
v  -9.2007389 -0.24345231 -2.9968591
v  -9.2157326 -0.37072819 -3.0817153
v  -9.2157326 -0.26466221 -2.9756494
v  -9.224514 -0.39413375 -3.0583098
v  -9.224514 -0.28806776 -2.9522438
v  -9.2263269 -0.41831511 -3.0341284
v  -9.2263269 -0.31224912 -2.9280624
v  -9.2212734 -0.44175643 -3.0106871
v  -9.2212734 -0.33569044 -2.9046211
v  -9.2102556 -0.4631474 -2.9892962
v  -9.2102556 -0.35708141 -2.8832302
v  -9.1946955 -0.48159498 -2.9708486
v  -9.1946955 -0.37552899 -2.8647826
v  -9.1746492 -0.4977321 -2.9547114
v  -9.1746492 -0.39166611 -2.8486454
v  -9.1492462 -0.51171821 -2.9407253
v  -9.1492462 -0.40565223 -2.8346593
v  -9.1192513 -0.52232039 -2.9301231
v  -7.845993 0.25608748 -3.7085307
v  -7.845993 0.36215347 -3.6024647
v  -9.1476564 -0.3124041 -3.1400394
v  -9.1476564 -0.20633811 -3.0339732
v  -9.7687912 -0.026979119 -3.2133322
v  -9.812604 0.81192541 -2.6380231
v  -9.812604 0.10481879 -3.3451302
v  -9.845993 0.36215347 -3.6024647
v  -9.845993 1.0692601 -2.8953576
v  -9.812604 1.3265948 -3.1526923
v  -9.812604 0.61948812 -3.8597991
v  -9.7687912 1.4583926 -3.2844901
v  -9.7687912 0.75128603 -3.9915972
v  -9.7055693 1.5898249 -3.4159222
v  -9.7055693 0.88271815 -4.1230292
v  -9.6225615 1.718801 -3.5448983
v  -9.6225615 1.0116942 -4.2520051
v  -9.5199842 1.8431318 -3.669229
v  -9.5199842 1.1360251 -4.3763361
v  -9.3986998 1.9606366 -3.7867336
v  -9.3986998 1.2535298 -4.4938407
v  -9.2602062 2.0692604 -3.8953576
v  -9.2602062 1.3621538 -4.6024647
v  -9.1065893 2.1671896 -3.9932866
v  -9.1065893 1.460083 -4.7003937
v  -8.9404125 2.2529509 -4.0790482
v  -8.9404125 1.5458441 -4.7861547
v  -8.7645826 2.3254838 -4.1515808
v  -8.7645826 1.618377 -4.8586879
v  -8.5821829 2.3841796 -4.2102766
v  -8.5821829 1.677073 -4.9173837
v  -8.3963099 2.428884 -4.254981
v  -8.3963099 1.7217772 -4.9620876
v  -8.209919 2.4598644 -4.2859612
v  -8.209919 1.7527575 -4.9930682
v  -7.845993 2.483474 -4.3095713
v  -7.845993 1.7763674 -5.0166779
v  -7.4820671 2.4598644 -4.2859612
v  -7.4820671 1.7527575 -4.9930682
v  -7.2956767 2.428884 -4.254981
v  -7.2956767 1.7217772 -4.9620876
v  -7.1098037 2.3841796 -4.2102766
v  -7.1098037 1.677073 -4.9173837
v  -6.9274039 2.3254838 -4.1515808
v  -6.9274039 1.618377 -4.8586879
v  -6.7515736 2.2529509 -4.0790482
v  -6.7515736 1.5458441 -4.7861547
v  -6.5853968 2.1671896 -3.9932866
v  -6.5853968 1.460083 -4.7003937
v  -6.4317794 2.0692604 -3.8953576
v  -6.4317794 1.3621538 -4.6024647
v  -6.2932868 1.9606366 -3.7867336
v  -6.2932868 1.2535298 -4.4938407
v  -6.1720018 1.8431318 -3.669229
v  -6.1720018 1.1360251 -4.3763361
v  -6.0694251 1.718801 -3.5448983
v  -6.0694251 1.0116942 -4.2520051
v  -5.9864163 1.5898249 -3.4159222
v  -5.9864163 0.88271815 -4.1230292
v  -5.9231949 1.4583926 -3.2844901
v  -5.9231949 0.75128603 -3.9915972
v  -5.8793821 1.3265948 -3.1526923
v  -5.8793821 0.61948812 -3.8597991
v  -5.845993 1.0692601 -2.8953576
v  -5.845993 0.36215347 -3.6024647
v  -5.8793821 0.81192541 -2.6380231
v  -5.8793821 0.10481879 -3.3451302
v  -5.9231949 0.6801275 -2.5062253
v  -5.9231949 -0.026979119 -3.2133322
v  -5.9864163 0.54869545 -2.3747933
v  -5.9864163 -0.1584112 -3.0819001
v  -6.0694251 0.41971934 -2.2458172
v  -6.0694251 -0.28738731 -2.9529243
v  -6.1720018 0.29538852 -2.1214864
v  -6.1720018 -0.41171813 -2.8285933
v  -6.2932868 0.17788374 -2.0039816
v  -6.2932868 -0.52922291 -2.7110887
v  -6.4317794 0.069259882 -1.8953578
v  -6.4317794 -0.63784677 -2.6024649
v  -6.5853968 -0.028669357 -1.7974287
v  -6.5853968 -0.73577601 -2.5045357
v  -6.7515736 -0.11443055 -1.7116675
v  -6.7515736 -0.8215372 -2.4187746
v  -6.9274039 -0.18696344 -1.6391346
v  -6.9274039 -0.89407009 -2.3462415
v  -7.1098037 -0.24565935 -1.5804386
v  -7.1098037 -0.952766 -2.2875457
v  -7.2956767 -0.29036367 -1.5357347
v  -7.2956767 -0.99747032 -2.2428415
v  -7.4820671 -0.32134402 -1.5047541
v  -7.4820671 -1.0284507 -2.2118611
v  -7.845993 -0.34495378 -1.4811444
v  -7.845993 -1.0520604 -2.1882515
v  -8.209919 -0.32134402 -1.5047541
v  -8.209919 -1.0284507 -2.2118611
v  -8.3963099 -0.29036367 -1.5357347
v  -8.3963099 -0.99747032 -2.2428415
v  -8.5821829 -0.24565935 -1.5804386
v  -8.5821829 -0.952766 -2.2875457
v  -8.7645826 -0.18696344 -1.6391346
v  -8.7645826 -0.89407009 -2.3462415
v  -8.9404125 -0.11443055 -1.7116675
v  -8.9404125 -0.8215372 -2.4187746
v  -9.1065893 -0.028669357 -1.7974287
v  -9.1065893 -0.73577601 -2.5045357
v  -9.2602062 0.069259882 -1.8953578
v  -9.2602062 -0.63784677 -2.6024649
v  -9.3986998 0.17788374 -2.0039816
v  -9.3986998 -0.52922291 -2.7110887
v  -9.5199842 0.29538852 -2.1214864
v  -9.5199842 -0.41171813 -2.8285933
v  -9.6225615 0.41971934 -2.2458172
v  -9.6225615 -0.28738731 -2.9529243
v  -9.7055693 0.54869545 -2.3747933
v  -9.7055693 -0.1584112 -3.0819001
v  -9.7687912 0.6801275 -2.5062253
v  -16.695808 -1.2055122 1.254595
v  -16.72109 0.79448771 0.69300455
v  -16.72109 -1.2055123 0.69300485
v  -16.695808 0.7944876 0.13141429
v  -16.695808 -1.2055124 0.13141459
v  -16.616749 0.79448748 -0.44426453
v  -16.616749 -1.2055125 -0.44426417
v  -16.479834 0.79448748 -1.0267344
v  -16.479834 -1.2055125 -1.026734
v  -16.282267 0.79448736 -1.6075873
v  -16.282267 -1.2055126 -1.6075871
v  -16.022865 0.79448724 -2.1775866
v  -16.022865 -1.2055128 -2.1775863
v  -15.702312 -1.2055129 -2.727056
v  -15.702312 0.79448712 -2.7270563
v  -15.323298 -1.2055129 -3.2463584
v  -15.323298 0.79448712 -3.2463586
v  -14.890508 0.794487 -3.726413
v  -14.890508 -1.205513 -3.7264125
v  -14.410454 0.79448688 -4.1592035
v  -14.410454 -1.2055131 -4.1592026
v  -13.891151 0.79448688 -4.5382175
v  -13.891151 -1.2055131 -4.5382175
v  -13.341681 -1.2055132 -4.8587704
v  -13.341681 0.79448676 -4.8587704
v  -12.771683 0.79448676 -5.1181726
v  -12.771683 -1.2055132 -5.1181717
v  -12.190829 0.79448676 -5.3157387
v  -12.190829 -1.2055132 -5.3157387
v  -11.608359 0.79448676 -5.4526539
v  -11.608359 -1.2055132 -5.4526539
v  -11.032681 0.79448664 -5.5317135
v  -11.032681 -1.2055134 -5.5317135
v  -10.47109 0.79448664 -5.5569954
v  -10.47109 -1.2055134 -5.5569954
v  -9.9095001 0.79448664 -5.5317135
v  -9.9095001 -1.2055134 -5.5317135
v  -9.3338213 0.79448676 -5.4526539
v  -9.3338213 -1.2055132 -5.4526539
v  -8.7513514 0.79448676 -5.3157387
v  -8.7513514 -1.2055132 -5.3157387
v  -8.1704979 0.79448676 -5.1181726
v  -8.1704979 -1.2055132 -5.1181717
v  -7.6004992 0.79448676 -4.8587704
v  -7.6004992 -1.2055132 -4.8587704
v  -7.0510292 0.79448688 -4.5382175
v  -7.0510292 -1.2055131 -4.5382175
v  -6.5317268 0.79448688 -4.1592035
v  -6.5317268 -1.2055131 -4.1592026
v  -6.0516729 0.794487 -3.726413
v  -6.0516729 -1.205513 -3.7264125
v  -5.6188827 0.79448712 -3.2463586
v  -5.6188827 -1.2055129 -3.2463584
v  -5.2398682 0.79448712 -2.7270563
v  -5.2398682 -1.2055129 -2.727056
v  -4.9193153 0.79448724 -2.1775866
v  -4.9193153 -1.2055128 -2.1775863
v  -4.6599135 0.79448736 -1.6075873
v  -4.6599135 -1.2055126 -1.6075871
v  -4.462347 0.79448748 -1.0267344
v  -4.462347 -1.2055125 -1.026734
v  -4.3254318 0.79448748 -0.44426453
v  -4.3254318 -1.2055125 -0.44426417
v  -4.2463722 0.7944876 0.13141429
v  -4.2463722 -1.2055124 0.13141459
v  -4.2210903 0.79448771 0.69300455
v  -4.2210903 -1.2055123 0.69300485
v  -4.2463722 0.79448771 1.2545948
v  -4.2463722 -1.2055122 1.254595
v  -4.3254318 0.79448795 1.8302735
v  -4.3254318 -1.205512 1.8302739
v  -4.462347 0.79448795 2.4127433
v  -4.462347 -1.205512 2.4127436
v  -4.6599135 0.79448819 2.9935966
v  -4.6599135 -1.2055119 2.9935968
v  -4.9193153 0.79448819 3.5635958
v  -4.9193153 -1.2055118 3.563596
v  -5.2398682 0.79448819 4.1130657
v  -5.2398682 -1.2055117 4.1130657
v  -5.6188827 0.79448843 4.6323681
v  -5.6188827 -1.2055117 4.6323681
v  -6.0516729 0.79448843 5.112422
v  -6.0516729 -1.2055116 5.112422
v  -6.5317268 0.79448843 5.5452118
v  -6.5317268 -1.2055115 5.5452127
v  -7.0510292 0.79448867 5.9242268
v  -7.0510292 -1.2055115 5.9242268
v  -7.6004992 0.79448867 6.2447796
v  -7.6004992 -1.2055113 6.2447796
v  -8.1704979 0.79448867 6.5041809
v  -8.1704979 -1.2055113 6.5041819
v  -8.7513514 0.79448867 6.7017479
v  -8.7513514 -1.2055113 6.7017479
v  -9.3338213 0.79448867 6.8386631
v  -9.3338213 -1.2055113 6.8386631
v  -9.9095001 0.79448867 6.9177227
v  -9.9095001 -1.2055112 6.9177227
v  -10.47109 0.79448867 6.9430046
v  -10.47109 -1.2055112 6.9430046
v  -11.032681 0.79448867 6.9177227
v  -11.032681 -1.2055112 6.9177227
v  -11.608359 0.79448867 6.8386631
v  -11.608359 -1.2055113 6.8386631
v  -12.190829 0.79448867 6.7017479
v  -12.190829 -1.2055113 6.7017479
v  -12.771683 0.79448867 6.5041809
v  -12.771683 -1.2055113 6.5041819
v  -13.341681 0.79448867 6.2447796
v  -13.341681 -1.2055113 6.2447796
v  -13.891151 0.79448867 5.9242268
v  -13.891151 -1.2055115 5.9242268
v  -14.410454 0.79448843 5.5452118
v  -14.410454 -1.2055115 5.5452127
v  -14.890508 0.79448843 5.112422
v  -14.890508 -1.2055116 5.112422
v  -15.323298 0.79448843 4.6323681
v  -15.323298 -1.2055117 4.6323681
v  -15.702312 0.79448819 4.1130657
v  -15.702312 -1.2055117 4.1130657
v  -16.022865 0.79448819 3.5635958
v  -16.022865 -1.2055118 3.563596
v  -16.282267 0.79448819 2.9935966
v  -16.282267 -1.2055119 2.9935968
v  -16.479834 0.79448795 2.4127433
v  -16.479834 -1.205512 2.4127436
v  -16.616749 0.79448795 1.8302735
v  -16.616749 -1.205512 1.8302739
v  -16.695808 0.79448771 1.2545948

# 610 UV coordinates
vt 0.86065298 7.3675885e-17 0
vt 0.031136205 0.062213756 0
vt 0.031136205 2.7628458e-17 0
vt 0.86065298 0.062213756 0
vt 1.7481186 0 0
vt 2.073792e-05 0.062213756 0
vt 2.073792e-05 0 0
vt 1.7481186 0.062213756 0
vt 0.86065298 1.4735177e-16 0
vt 0.031136205 1.0821147e-16 0
vt 0.87404895 -0.41475838 0
vt -0.87404895 0.41475838 0
vt -0.87404895 -0.41475838 0
vt 0.87404895 0.41475838 0
vt 1.3733028 -0.41475838 0
vt 3.1573482 0.73319614 0
vt 1.3733028 0.41475838 0
vt -0.37479511 0.41475838 0
vt -1.0524493 0.73319614 0
vt -1.0524493 -0.73319614 0
vt -0.37479511 -0.41475838 0
vt 3.1573482 -0.73319614 0
vt -2.1048987 -1.036896 0
vt 2.1048987 2.073792 0
vt -2.1048987 2.073792 0
vt 2.1048987 -1.036896 0
vt 1.036896 1.036896 0
vt 4.147584 -4.4968188e-21 0
vt 4.147584 1.036896 0
vt -4.4968188e-21 -4.4968188e-21 0
vt 3.1106877 1.036896 0
vt -5.8940708e-16 -4.4968188e-21 0
vt 4.147584 -1.8275077e-16 0
vt -5.8940708e-16 1.036896 0
vt 4.2097974 0 0
vt -1.1788142e-15 1.036896 0
vt -1.1788142e-15 0 0
vt 4.2097974 1.036896 0
vt 4.2098184 -2.073792 0
vt 2.073792e-05 2.073792 0
vt 2.073792e-05 -2.073792 0
vt 4.2098184 2.073792 0
vt 0.17162563 0.69428474 0
vt 0.015715718 0.66122353 0
vt 0.17162563 0.66122353 0
vt 0.17162563 0.52897882 0
vt 0.015715718 0.56204003 0
vt 0.015715718 0.52897882 0
vt 0.17162563 0.56204003 0
vt 0.17162563 0.59510118 0
vt 0.015715718 0.59510118 0
vt 0.015715718 0.62816238 0
vt 0.17162563 0.62816238 0
vt 0.015715718 1.0579576 0
vt 0.17162563 1.0248965 0
vt 0.17162563 1.0579576 0
vt 0.015715718 1.0248965 0
vt 0.015715718 0.9918353 0
vt 0.17162563 0.9918353 0
vt 0.015715718 0.95877415 0
vt 0.17162563 0.95877415 0
vt 0.015715718 0.92571294 0
vt 0.17162563 0.92571294 0
vt 0.015715718 0.8926518 0
vt 0.17162563 0.8926518 0
vt 0.015715718 0.85959059 0
vt 0.17162563 0.85959059 0
vt 0.015715718 0.82652944 0
vt 0.17162563 0.82652944 0
vt 0.015715718 0.79346824 0
vt 0.17162563 0.79346824 0
vt 0.015715718 0.76040709 0
vt 0.17162563 0.76040709 0
vt 0.015715718 0.72734588 0
vt 0.17162563 0.72734588 0
vt 0.015715718 0.69428474 0
vt 1.6144074 -2.2538382e-20 0
vt 3.2629708e-16 0.15590991 0
vt 2.3153916e-16 -2.2538382e-20 0
vt 1.6144074 0.15590991 0
vt 1.5902104 -2.2538382e-20 0
vt 3.141732e-16 0.15590991 0
vt 2.3144445e-16 -2.2538382e-20 0
vt 1.5902104 0.15590991 0
vt 1.3530518 -0.28200305 0
vt 1.3876677 -0.31015435 0
vt 1.3639467 -0.28931794 0
vt 1.1605613 -0.56870019 0
vt 0.00010393994 0.55364114 0
vt 1.1876776 -0.58487236 0
vt 1.2191209 -0.59632474 0
vt 1.2535779 -0.6015771 0
vt 1.2891229 -0.59969318 0
vt 1.3235276 -0.59056574 0
vt 1.3547046 -0.57498127 0
vt 1.3811088 -0.55442262 0
vt 1.4019448 -0.53070223 0
vt 1.4181173 -0.5035854 0
vt 1.4295697 -0.47214219 0
vt 1.4348221 -0.43768504 0
vt 1.4329381 -0.40214011 0
vt 1.4238107 -0.36773545 0
vt 1.4082263 -0.33655843 0
vt 0.17162563 2.4158355e-13 0
vt 0.015715718 0.013993923 0
vt 0.015715718 2.6769757e-17 0
vt 0.17162563 0.013993923 0
vt 1.1434641 0.59664142 0
vt 0.10406467 0.39776093 0
vt 1.1434641 0.39776093 0
vt 1.1434641 1.4103706e-15 0
vt 0.10406467 0 0
vt 0.10406467 12.330589 0
vt 1.1434641 12.72835 0
vt 0.10406467 12.72835 0
vt 1.1434641 12.330589 0
vt 0.10406467 12.131708 0
vt 1.1434641 12.131708 0
vt 0.10406467 11.932828 0
vt 1.1434641 11.932828 0
vt 0.10406467 11.733948 0
vt 1.1434641 11.733948 0
vt 0.10406467 11.535067 0
vt 1.1434641 11.535067 0
vt 0.10406467 11.336186 0
vt 1.1434641 11.336186 0
vt 0.10406467 11.137306 0
vt 1.1434641 11.137306 0
vt 0.10406467 10.938426 0
vt 1.1434641 10.938426 0
vt 0.10406467 10.739545 0
vt 1.1434641 10.739545 0
vt 0.10406467 10.540665 0
vt 1.1434641 10.540665 0
vt 0.10406467 10.341784 0
vt 1.1434641 10.341784 0
vt 0.10406467 10.142903 0
vt 1.1434641 10.142903 0
vt 0.10406467 9.9440231 0
vt 1.1434641 9.9440231 0
vt 0.10406467 9.5462627 0
vt 1.1434641 9.5462627 0
vt 0.10406467 9.1485014 0
vt 1.1434641 9.1485014 0
vt 0.10406467 8.9496212 0
vt 1.1434641 8.9496212 0
vt 0.10406467 8.7507401 0
vt 1.1434641 8.7507401 0
vt 0.10406467 8.5518599 0
vt 1.1434641 8.5518599 0
vt 0.10406467 8.3529797 0
vt 1.1434641 8.3529797 0
vt 0.10406467 8.1540995 0
vt 1.1434641 8.1540995 0
vt 0.10406467 7.9552188 0
vt 1.1434641 7.9552188 0
vt 0.10406467 7.7563381 0
vt 1.1434641 7.7563381 0
vt 0.10406467 7.5574574 0
vt 1.1434641 7.5574574 0
vt 0.10406467 7.3585773 0
vt 1.1434641 7.3585773 0
vt 0.10406467 7.1596966 0
vt 1.1434641 7.1596966 0
vt 0.10406467 6.9608164 0
vt 1.1434641 6.9608164 0
vt 0.10406467 6.7619357 0
vt 1.1434641 6.7619357 0
vt 0.10406467 6.3641748 0
vt 1.1434641 6.3641748 0
vt 0.10406467 5.966414 0
vt 1.1434641 5.966414 0
vt 0.10406467 5.7675333 0
vt 1.1434641 5.7675333 0
vt 0.10406467 5.5686531 0
vt 1.1434641 5.5686531 0
vt 0.10406467 5.3697724 0
vt 1.1434641 5.3697724 0
vt 0.10406467 5.1708922 0
vt 1.1434641 5.1708922 0
vt 0.10406467 4.9720116 0
vt 1.1434641 4.9720116 0
vt 0.10406467 4.7731314 0
vt 1.1434641 4.7731314 0
vt 0.10406467 4.5742507 0
vt 1.1434641 4.5742507 0
vt 0.10406467 4.37537 0
vt 1.1434641 4.37537 0
vt 0.10406467 4.1764898 0
vt 1.1434641 4.1764898 0
vt 0.10406467 3.9776094 0
vt 1.1434641 3.9776094 0
vt 0.10406467 3.7787287 0
vt 1.1434641 3.7787287 0
vt 0.10406467 3.5798483 0
vt 1.1434641 3.5798483 0
vt 0.10406467 3.1820874 0
vt 1.1434641 3.1820874 0
vt 0.10406467 2.7843266 0
vt 1.1434641 2.7843266 0
vt 0.10406467 2.5854461 0
vt 1.1434641 2.5854461 0
vt 0.10406467 2.3865657 0
vt 1.1434641 2.3865657 0
vt 0.10406467 2.187685 0
vt 1.1434641 2.187685 0
vt 0.10406467 1.9888047 0
vt 1.1434641 1.9888047 0
vt 0.10406467 1.7899241 0
vt 1.1434641 1.7899241 0
vt 0.10406467 1.5910437 0
vt 1.1434641 1.5910437 0
vt 0.10406467 1.3921633 0
vt 1.1434641 1.3921633 0
vt 0.10406467 1.1932828 0
vt 1.1434641 1.1932828 0
vt 0.10406467 0.99440235 0
vt 1.1434641 0.99440235 0
vt 0.10406467 0.79552186 0
vt 1.1434641 0.79552186 0
vt 0.10406467 0.59664142 0
vt 4.0774579 -0.5719986 0
vt 3.4318507 -0.83564419 0
vt 3.4427454 -0.84295911 0
vt 3.8188479 -1.137539 0
vt 3.4599075 -1.1080638 0
vt 3.6927848 -1.310263 0
vt 3.4807436 -1.0843434 0
vt 3.4969161 -1.0572265 0
vt 3.5083685 -1.0257834 0
vt 3.5488355 -1.4699327 0
vt 3.4335034 -1.1286224 0
vt 3.4023263 -1.1442069 0
vt 3.3679218 -1.1533344 0
vt 3.9254665 -0.95478106 0
vt 3.5136209 -0.99132621 0
vt 3.5117369 -0.95578128 0
vt 3.3891656 -1.6138821 0
vt 3.3323767 -1.1552182 0
vt 3.5026095 -0.92137665 0
vt 3.2979198 -1.1499659 0
vt 4.0117455 -0.76519483 0
vt 3.487025 -0.8901996 0
vt 3.4664664 -0.86379552 0
vt 3.2164416 -1.7399453 0
vt 3.2664764 -1.1385136 0
vt 3.2393601 -1.1223414 0
vt 3.0336838 -1.8465637 0
vt 2.0789027 6.9237913e-16 0
vt 2.8440976 -1.9328429 0
vt 2.6509013 -1.9985549 0
vt 2.4571674 -2.0440941 0
vt 2.0789027 -2.0787988 0
vt 1.7006382 -2.0440941 0
vt 1.5069041 -1.9985549 0
vt 1.3137079 -1.9328429 0
vt 1.1241217 -1.8465637 0
vt 0.94136375 -1.7399453 0
vt 0.76863974 -1.6138821 0
vt 0.60896999 -1.4699327 0
vt 0.46502066 -1.310263 0
vt 0.33895749 -1.137539 0
vt 0.23233901 -0.95478106 0
vt 0.14605993 -0.76519483 0
vt 0.080347739 -0.5719986 0
vt 0.034808721 -0.37826458 0
vt 0.00010393994 9.9311712e-16 0
vt 0.034808721 0.37826458 0
vt 0.080347739 0.5719986 0
vt 0.14605993 0.76519483 0
vt 0.23233901 0.95478106 0
vt 0.33895749 1.137539 0
vt 0.46502066 1.310263 0
vt 0.60896999 1.4699327 0
vt 0.76863974 1.6138821 0
vt 0.94136375 1.7399453 0
vt 1.1241217 1.8465637 0
vt 1.3137079 1.9328429 0
vt 1.5069041 1.9985549 0
vt 1.7006382 2.0440941 0
vt 2.0789027 2.0787988 0
vt 2.4571674 2.0440941 0
vt 2.6509013 1.9985549 0
vt 2.8440976 1.9328429 0
vt 3.0336838 1.8465637 0
vt 3.2164416 1.7399453 0
vt 3.3891656 1.6138821 0
vt 3.5488355 1.4699327 0
vt 3.6927848 1.310263 0
vt 3.8188479 1.137539 0
vt 3.9254665 0.95478106 0
vt 4.0117455 0.76519483 0
vt 4.0774579 0.5719986 0
vt 4.1229968 0.37826458 0
vt 4.1577015 2.2937882e-16 0
vt 4.1229968 -0.37826458 0
vt -0.37826458 -2.0440941 0
vt -0.76519483 -1.9328429 0
vt -0.5719986 -1.9985549 0
vt 0.37826458 -2.0440941 0
vt -6.3644859e-16 -2.0787988 0
vt 0.5719986 -1.9985549 0
vt 0.76519483 -1.9328429 0
vt 0.95478106 -1.8465637 0
vt 1.137539 -1.7399453 0
vt 1.310263 -1.6138821 0
vt 1.4699327 -1.4699327 0
vt 1.6138821 -1.310263 0
vt 1.7399453 -1.137539 0
vt 1.8465637 -0.95478106 0
vt 1.9328429 -0.76519483 0
vt 1.9985549 -0.5719986 0
vt 2.0440941 -0.37826458 0
vt 2.0787988 4.8395826e-16 0
vt 2.0440941 0.37826458 0
vt 1.9985549 0.5719986 0
vt 1.9328429 0.76519483 0
vt 1.8465637 0.95478106 0
vt 1.7399453 1.137539 0
vt 1.6138821 1.310263 0
vt 1.4699327 1.4699327 0
vt 1.310263 1.6138821 0
vt 1.137539 1.7399453 0
vt 0.95478106 1.8465637 0
vt 0.76519483 1.9328429 0
vt 0.5719986 1.9985549 0
vt 0.37826458 2.0440941 0
vt -1.2804246e-15 2.0787988 0
vt -0.37826458 2.0440941 0
vt -0.5719986 1.9985549 0
vt -0.76519483 1.9328429 0
vt -0.95478106 1.8465637 0
vt -1.137539 1.7399453 0
vt -1.310263 1.6138821 0
vt -1.4699327 1.4699327 0
vt -1.6138821 1.310263 0
vt -1.7399453 1.137539 0
vt -1.8465637 0.95478106 0
vt -1.9328429 0.76519483 0
vt -1.9985549 0.5719986 0
vt -2.0440941 0.37826458 0
vt -2.0787988 1.2476967e-15 0
vt -2.0440941 -0.37826458 0
vt -1.9985549 -0.5719986 0
vt -1.9328429 -0.76519483 0
vt -1.8465637 -0.95478106 0
vt -1.7399453 -1.137539 0
vt -1.6138821 -1.310263 0
vt -1.4699327 -1.4699327 0
vt -1.310263 -1.6138821 0
vt -1.137539 -1.7399453 0
vt -0.95478106 -1.8465637 0
vt 0.74201173 0.201662 0
vt 0.067492403 0 0
vt 0.74201173 1.4300961e-15 0
vt 0.067492403 12.704706 0
vt 0.74201173 12.906368 0
vt 0.067492403 12.906368 0
vt 0.74201173 12.704706 0
vt 0.067492403 12.503044 0
vt 0.74201173 12.503044 0
vt 0.067492403 12.301382 0
vt 0.74201173 12.301382 0
vt 0.067492403 12.09972 0
vt 0.74201173 12.09972 0
vt 0.067492403 11.898058 0
vt 0.74201173 11.898058 0
vt 0.74201173 11.696396 0
vt 0.067492403 11.696396 0
vt 0.74201173 11.494734 0
vt 0.067492403 11.494734 0
vt 0.067492403 11.293073 0
vt 0.74201173 11.293073 0
vt 0.067492403 11.091411 0
vt 0.74201173 11.091411 0
vt 0.067492403 10.889749 0
vt 0.74201173 10.889749 0
vt 0.74201173 10.688087 0
vt 0.067492403 10.688087 0
vt 0.067492403 10.486424 0
vt 0.74201173 10.486424 0
vt 0.067492403 10.284762 0
vt 0.74201173 10.284762 0
vt 0.067492403 10.0831 0
vt 0.74201173 10.0831 0
vt 0.067492403 9.8814383 0
vt 0.74201173 9.8814383 0
vt 0.067492403 9.6797762 0
vt 0.74201173 9.6797762 0
vt 0.067492403 9.4781141 0
vt 0.74201173 9.4781141 0
vt 0.067492403 9.2764521 0
vt 0.74201173 9.2764521 0
vt 0.067492403 9.07479 0
vt 0.74201173 9.07479 0
vt 0.067492403 8.8731279 0
vt 0.74201173 8.8731279 0
vt 0.067492403 8.6714659 0
vt 0.74201173 8.6714659 0
vt 0.067492403 8.4698038 0
vt 0.74201173 8.4698038 0
vt 0.067492403 8.2681417 0
vt 0.74201173 8.2681417 0
vt 0.067492403 8.0664806 0
vt 0.74201173 8.0664806 0
vt 0.067492403 7.8648181 0
vt 0.74201173 7.8648181 0
vt 0.067492403 7.663156 0
vt 0.74201173 7.663156 0
vt 0.067492403 7.461494 0
vt 0.74201173 7.461494 0
vt 0.067492403 7.2598324 0
vt 0.74201173 7.2598324 0
vt 0.067492403 7.0581703 0
vt 0.74201173 7.0581703 0
vt 0.067492403 6.8565083 0
vt 0.74201173 6.8565083 0
vt 0.067492403 6.6548462 0
vt 0.74201173 6.6548462 0
vt 0.067492403 6.4531841 0
vt 0.74201173 6.4531841 0
vt 0.067492403 6.2515221 0
vt 0.74201173 6.2515221 0
vt 0.067492403 6.04986 0
vt 0.74201173 6.04986 0
vt 0.067492403 5.8481979 0
vt 0.74201173 5.8481979 0
vt 0.067492403 5.6465364 0
vt 0.74201173 5.6465364 0
vt 0.067492403 5.4448743 0
vt 0.74201173 5.4448743 0
vt 0.067492403 5.2432122 0
vt 0.74201173 5.2432122 0
vt 0.067492403 5.0415502 0
vt 0.74201173 5.0415502 0
vt 0.067492403 4.8398881 0
vt 0.74201173 4.8398881 0
vt 0.067492403 4.638226 0
vt 0.74201173 4.638226 0
vt 0.067492403 4.436564 0
vt 0.74201173 4.436564 0
vt 0.067492403 4.2349019 0
vt 0.74201173 4.2349019 0
vt 0.067492403 4.0332403 0
vt 0.74201173 4.0332403 0
vt 0.067492403 3.831578 0
vt 0.74201173 3.831578 0
vt 0.067492403 3.6299162 0
vt 0.74201173 3.6299162 0
vt 0.067492403 3.4282541 0
vt 0.74201173 3.4282541 0
vt 0.067492403 3.2265921 0
vt 0.74201173 3.2265921 0
vt 0.067492403 3.02493 0
vt 0.74201173 3.02493 0
vt 0.067492403 2.8232682 0
vt 0.74201173 2.8232682 0
vt 0.067492403 2.6216061 0
vt 0.74201173 2.6216061 0
vt 0.067492403 2.419944 0
vt 0.74201173 2.419944 0
vt 0.067492403 2.218282 0
vt 0.74201173 2.218282 0
vt 0.067492403 2.0166202 0
vt 0.74201173 2.0166202 0
vt 0.067492403 1.8149581 0
vt 0.74201173 1.8149581 0
vt 0.067492403 1.613296 0
vt 0.74201173 1.613296 0
vt 0.067492403 1.4116341 0
vt 0.74201173 1.4116341 0
vt 0.067492403 1.209972 0
vt 0.74201173 1.209972 0
vt 0.067492403 1.0083101 0
vt 0.74201173 1.0083101 0
vt 0.067492403 0.80664802 0
vt 0.74201173 0.80664802 0
vt 0.067492403 0.60498601 0
vt 0.74201173 0.60498601 0
vt 0.067492403 0.40332401 0
vt 0.74201173 0.40332401 0
vt 0.067492403 0.201662 0
vt 0.035223886 0.38355497 0
vt 0.14803106 0.77589685 0
vt 0.081399813 0.57999855 0
vt 3.3725966e-05 2.5813996e-16 0
vt 0.0085602645 0.18940173 0
vt 0.0085602645 -0.18940173 0
vt 0.035223886 -0.38355497 0
vt 0.081399813 -0.57999855 0
vt 0.14803106 -0.77589685 0
vt 0.23551683 -0.96813458 0
vt 0.34362647 -1.1534486 0
vt 0.47145277 -1.3285884 0
vt 0.61741537 -1.4904912 0
vt 0.77931827 -1.6364539 0
vt 0.954458 -1.7642801 0
vt 1.1397719 -1.8723898 0
vt 1.3320098 -1.9598755 0
vt 1.5279081 -2.0265067 0
vt 1.7243516 -2.0726826 0
vt 1.9185048 -2.0993464 0
vt 2.1079066 -2.107873 0
vt 2.2973082 -2.0993464 0
vt 2.4914615 -2.0726826 0
vt 2.6879051 -2.0265067 0
vt 2.8838034 -1.9598755 0
vt 3.0760412 -1.8723898 0
vt 3.2613552 -1.7642801 0
vt 3.4364948 -1.6364539 0
vt 3.5983977 -1.4904912 0
vt 3.7443604 -1.3285884 0
vt 3.8721867 -1.1534486 0
vt 3.9802964 -0.96813458 0
vt 4.0677819 -0.77589685 0
vt 4.1344132 -0.57999855 0
vt 4.1805892 -0.38355497 0
vt 4.207253 -0.18940173 0
vt 4.2157793 -5.1627992e-16 0
vt 4.207253 0.18940173 0
vt 4.1805892 0.38355497 0
vt 4.1344132 0.57999855 0
vt 4.0677819 0.77589685 0
vt 3.9802964 0.96813458 0
vt 3.8721867 1.1534486 0
vt 3.7443604 1.3285884 0
vt 3.5983977 1.4904912 0
vt 3.4364948 1.6364539 0
vt 3.2613552 1.7642801 0
vt 3.0760412 1.8723898 0
vt 2.8838034 1.9598755 0
vt 2.6879051 2.0265067 0
vt 2.4914615 2.0726826 0
vt 2.2973082 2.0993464 0
vt 2.1079066 2.107873 0
vt 1.9185048 2.0993464 0
vt 1.7243516 2.0726826 0
vt 1.5279081 2.0265067 0
vt 1.3320098 1.9598755 0
vt 1.1397719 1.8723898 0
vt 0.954458 1.7642801 0
vt 0.77931827 1.6364539 0
vt 0.61741537 1.4904912 0
vt 0.47145277 1.3285884 0
vt 0.34362647 1.1534486 0
vt 0.23551683 0.96813458 0
vt 2.0726826 -0.38355497 0
vt 1.9598755 -0.77589685 0
vt 2.0265067 -0.57999855 0
vt 2.107873 -2.5813996e-16 0
vt 2.0993464 -0.18940173 0
vt 2.0993464 0.18940173 0
vt 2.0726826 0.38355497 0
vt 2.0265067 0.57999855 0
vt 1.9598755 0.77589685 0
vt 1.8723898 0.96813458 0
vt 1.7642801 1.1534486 0
vt 1.6364539 1.3285884 0
vt 1.4904912 1.4904912 0
vt 1.3285884 1.6364539 0
vt 1.1534486 1.7642801 0
vt 0.96813458 1.8723898 0
vt 0.77589685 1.9598755 0
vt 0.57999855 2.0265067 0
vt 0.38355497 2.0726826 0
vt 0.18940173 2.0993464 0
vt 3.8720997e-16 2.107873 0
vt -0.18940173 2.0993464 0
vt -0.38355497 2.0726826 0
vt -0.57999855 2.0265067 0
vt -0.77589685 1.9598755 0
vt -0.96813458 1.8723898 0
vt -1.1534486 1.7642801 0
vt -1.3285884 1.6364539 0
vt -1.4904912 1.4904912 0
vt -1.6364539 1.3285884 0
vt -1.7642801 1.1534486 0
vt -1.8723898 0.96813458 0
vt -1.9598755 0.77589685 0
vt -2.0265067 0.57999855 0
vt -2.0726826 0.38355497 0
vt -2.0993464 0.18940173 0
vt -2.107873 5.1627992e-16 0
vt -2.0993464 -0.18940173 0
vt -2.0726826 -0.38355497 0
vt -2.0265067 -0.57999855 0
vt -1.9598755 -0.77589685 0
vt -1.8723898 -0.96813458 0
vt -1.7642801 -1.1534486 0
vt -1.6364539 -1.3285884 0
vt -1.4904912 -1.4904912 0
vt -1.3285884 -1.6364539 0
vt -1.1534486 -1.7642801 0
vt -0.96813458 -1.8723898 0
vt -0.77589685 -1.9598755 0
vt -0.57999855 -2.0265067 0
vt -0.38355497 -2.0726826 0
vt -0.18940173 -2.0993464 0
vt -6.4535001e-16 -2.107873 0
vt 0.18940173 -2.0993464 0
vt 0.38355497 -2.0726826 0
vt 0.57999855 -2.0265067 0
vt 0.77589685 -1.9598755 0
vt 0.96813458 -1.8723898 0
vt 1.1534486 -1.7642801 0
vt 1.3285884 -1.6364539 0
vt 1.4904912 -1.4904912 0
vt 1.6364539 -1.3285884 0
vt 1.7642801 -1.1534486 0
vt 1.8723898 -0.96813458 0

# 164 vertex normals
vn -1 -0 0
vn -0 0.70710689 -0.70710665
vn 1 0 0
vn 0 -0.70710689 0.70710665
vn 0 -0.70710665 -0.70710689
vn 0 -1 -1.6292068e-07
vn 1 -7.2351318e-23 4.4408921e-16
vn -1 4.3410792e-23 -2.6645354e-16
vn 0 -1.6292068e-07 1
vn 0 1 1.6292068e-07
vn -0.35462123 -0.66115206 0.66115183
vn -0.15550409 -0.69850516 0.69850487
vn 0.58854699 -0.57166982 0.57166952
vn 0.43161103 -0.63785273 0.63785249
vn 0.24963316 -0.68472028 0.68471998
vn 0.050212357 -0.70621496 0.70621473
vn -0.58854699 0.57166982 -0.57166952
vn -0.72583181 0.48639923 -0.48639902
vn -0.84481508 0.37834349 -0.37834334
vn -0.93501002 0.25075513 -0.25075504
vn -0.98783523 0.10995802 -0.10995798
vn -0.99873859 -0.035505507 0.035505492
vn -0.96834046 -0.17651734 0.17651726
vn -0.90205979 -0.30519515 0.30519503
vn -0.80846298 -0.41616568 0.4161655
vn -0.68787223 -0.51324069 0.51324052
vn -0.53505838 -0.59737462 0.59737438
vn 0.6952033 -0.50827777 0.5082776
vn -0.52549285 0.60160518 -0.60160494
vn 0 -0.70710665 -0.70710695
vn -0.96139896 -0.19456629 0.19456621
vn -0.98330539 -0.12866734 0.12866728
vn -1 -3.7940083e-16 2.8673293e-16
vn -1 6.9388964e-18 -6.9388931e-18
vn -0.98330539 0.12866734 -0.12866728
vn -1 1.1102233e-16 -1.1102228e-16
vn -1 9.8532315e-16 -9.8532272e-16
vn -0.96139896 0.19456629 -0.19456621
vn -0.92978829 0.26028234 -0.26028222
vn -0.88828403 0.32477039 -0.32477027
vn -0.83699548 0.3869358 -0.38693565
vn -0.77635318 0.44568819 -0.44568801
vn -0.70710677 0.50000012 -0.49999991
vn -0.63029814 0.54896474 -0.5489645
vn -0.54720974 0.59184533 -0.5918451
vn -0.45929459 0.62811178 -0.62811154
vn -0.36809471 0.65745974 -0.6574595
vn -0.27515823 0.67981189 -0.6798116
vn -0.18196306 0.69530207 -0.69530177
vn 1.6682232e-16 0.70710695 -0.70710665
vn 1.5700924e-16 0.70710695 -0.70710665
vn 0.18196306 0.69530207 -0.69530177
vn 0.27515823 0.67981189 -0.6798116
vn 0.36809471 0.65745974 -0.6574595
vn 0.45929459 0.62811178 -0.62811154
vn 0.54720974 0.59184533 -0.5918451
vn 0.63029814 0.54896474 -0.5489645
vn 0.70710677 0.50000012 -0.49999991
vn 0.77635318 0.44568819 -0.44568801
vn 0.83699548 0.3869358 -0.38693565
vn 0.88828403 0.32477039 -0.32477027
vn 0.92978829 0.26028234 -0.26028222
vn 0.96139896 0.19456629 -0.19456621
vn 0.98330539 0.12866734 -0.12866728
vn 1 -1.1796122e-16 1.1796117e-16
vn 1 -1.1102233e-16 1.1102228e-16
vn 0.98330539 -0.12866734 0.12866728
vn 0.96139896 -0.19456629 0.19456621
vn 0.92978829 -0.26028234 0.26028222
vn 0.88828403 -0.32477039 0.32477027
vn 0.83699548 -0.3869358 0.38693565
vn 0.77635318 -0.44568819 0.44568801
vn 0.70710677 -0.50000012 0.49999991
vn 0.63029814 -0.54896474 0.5489645
vn 0.54720974 -0.59184533 0.5918451
vn 0.45929459 -0.62811178 0.62811154
vn 0.36809471 -0.65745974 0.6574595
vn 0.27515823 -0.67981189 0.6798116
vn 0.18196306 -0.69530207 0.69530177
vn -1.6682232e-16 -0.70710695 0.70710665
vn 3.1401849e-16 -0.70710695 0.70710665
vn -0.18196306 -0.69530207 0.69530177
vn -0.27515823 -0.67981189 0.6798116
vn -0.36809471 -0.65745974 0.6574595
vn -0.45929459 -0.62811178 0.62811154
vn -0.54720974 -0.59184533 0.5918451
vn -0.63029814 -0.54896474 0.5489645
vn -0.70710677 -0.50000012 0.49999991
vn -0.77635318 -0.44568819 0.44568801
vn -0.83699548 -0.3869358 0.38693565
vn -0.88828403 -0.32477039 0.32477027
vn -0.92978829 -0.26028234 0.26028222
vn 0 0.70710665 0.70710695
vn -0.99595493 1.4639147e-08 0.089854442
vn -1 1.5200612e-16 4.019436e-16
vn -0.99595493 -1.4639147e-08 -0.089854442
vn -1 -3.2742467e-23 -2.0097181e-16
vn -1 -3.6835279e-23 -2.2609332e-16
vn -0.98330539 -2.9645546e-08 -0.18196306
vn -0.96139896 -4.4828965e-08 -0.27515823
vn -0.92978829 -5.997024e-08 -0.36809471
vn -0.88828403 -7.4828591e-08 -0.45929459
vn -0.83699548 -8.9151783e-08 -0.54720974
vn -0.77635318 -1.026886e-07 -0.63029814
vn -0.70710677 -1.1520232e-07 -0.70710677
vn -0.63029814 -1.26484e-07 -0.77635318
vn -0.54720974 -1.3636388e-07 -0.83699548
vn -0.45929459 -1.4471985e-07 -0.88828403
vn -0.36809471 -1.5148174e-07 -0.92978829
vn -0.27515823 -1.5663177e-07 -0.96139896
vn -0.18196306 -1.6020078e-07 -0.98330539
vn -0.089854442 -1.6226166e-07 -0.99595493
vn 6.7828e-16 -1.6292068e-07 -1
vn 4.0194363e-16 -1.6292068e-07 -1
vn 0.089854442 -1.6226166e-07 -0.99595493
vn 0.18196306 -1.6020078e-07 -0.98330539
vn 0.27515823 -1.5663177e-07 -0.96139896
vn 0.36809471 -1.5148174e-07 -0.92978829
vn 0.45929459 -1.4471985e-07 -0.88828403
vn 0.54720974 -1.3636388e-07 -0.83699548
vn 0.63029814 -1.26484e-07 -0.77635318
vn 0.70710677 -1.1520232e-07 -0.70710677
vn 0.77635318 -1.026886e-07 -0.63029814
vn 0.83699548 -8.9151783e-08 -0.54720974
vn 0.88828403 -7.4828591e-08 -0.45929459
vn 0.92978829 -5.997024e-08 -0.36809471
vn 0.96139896 -4.4828965e-08 -0.27515823
vn 0.98330539 -2.9645546e-08 -0.18196306
vn 0.99595493 -1.4639147e-08 -0.089854442
vn 1 2.0464042e-24 1.2560739e-17
vn 1 3.2742467e-23 2.0097181e-16
vn 0.99595493 1.4639147e-08 0.089854442
vn 0.98330539 2.9645546e-08 0.18196306
vn 0.96139896 4.4828965e-08 0.27515823
vn 0.92978829 5.997024e-08 0.36809471
vn 0.88828403 7.4828591e-08 0.45929459
vn 0.83699548 8.9151783e-08 0.54720974
vn 0.77635318 1.026886e-07 0.63029814
vn 0.70710677 1.1520232e-07 0.70710677
vn 0.63029814 1.26484e-07 0.77635318
vn 0.54720974 1.3636388e-07 0.83699548
vn 0.45929459 1.4471985e-07 0.88828403
vn 0.36809471 1.5148174e-07 0.92978829
vn 0.27515823 1.5663177e-07 0.96139896
vn 0.18196306 1.6020078e-07 0.98330539
vn 0.089854442 1.6226166e-07 0.99595493
vn 1.2560739e-17 1.6292068e-07 1
vn 4.0194363e-16 1.6292068e-07 1
vn -0.089854442 1.6226166e-07 0.99595493
vn -0.18196306 1.6020078e-07 0.98330539
vn -0.27515823 1.5663177e-07 0.96139896
vn -0.36809471 1.5148174e-07 0.92978829
vn -0.45929459 1.4471985e-07 0.88828403
vn -0.54720974 1.3636388e-07 0.83699548
vn -0.63029814 1.26484e-07 0.77635318
vn -0.70710677 1.1520232e-07 0.70710677
vn -0.77635318 1.026886e-07 0.63029814
vn -0.83699548 8.9151783e-08 0.54720974
vn -0.88828403 7.4828591e-08 0.45929459
vn -0.92978829 5.997024e-08 0.36809471
vn -0.96139896 4.4828965e-08 0.27515823
vn -0.98330539 2.9645546e-08 0.18196306
vn 0 -1 1.6292068e-07
vn 0 1 -1.6292068e-07

# Mesh 'hotplate body:1' with 10 faces
g hotplate body:1
usemtl Miscellaneous Default
f  1/1/1 2/2/1 3/3/1
f  2/2/1 1/1/1 4/4/1
f  5/5/2 4/6/2 1/7/2
f  4/6/2 5/5/2 6/8/2
f  7/9/3 6/2/3 5/10/3
f  6/2/3 7/9/3 8/4/3
f  3/5/4 8/6/4 7/7/4
f  8/6/4 3/5/4 2/8/4
f  2/11/5 6/12/5 8/13/5
f  6/12/5 2/11/5 4/14/5

# Mesh 'hotplate body:1' with 18 faces
g hotplate body:1
usemtl Glass/Glazing Blue - Glazing
f  3/15/5 9/16/5 1/17/5
f  5/18/5 9/16/5 10/19/5
f  1/17/5 9/16/5 5/18/5
f  11/20/5 5/18/5 10/19/5
f  11/20/5 7/21/5 5/18/5
f  12/22/5 7/21/5 11/20/5
f  12/22/5 3/15/5 7/21/5
f  9/16/5 3/15/5 12/22/5
f  10/23/6 13/24/6 14/25/6
f  13/24/6 10/23/6 9/26/6
f  9/27/7 15/28/7 13/29/7
f  15/28/7 9/27/7 12/30/7
f  10/31/8 16/32/8 11/33/8
f  16/32/8 10/31/8 14/34/8
f  16/35/9 13/36/9 15/37/9
f  13/36/9 16/35/9 14/38/9
f  11/39/10 15/40/10 12/41/10
f  15/40/10 11/39/10 16/42/10

# Mesh 'hotplate button:1' with 55 faces
g hotplate button:1
usemtl Glass/Glazing Blue - Glazing
f  17/43/11 18/44/12 19/45/12
f  20/46/13 21/47/14 22/48/13
f  23/49/14 21/47/14 20/46/13
f  24/50/15 21/47/14 23/49/14
f  24/50/15 25/51/15 21/47/14
f  24/50/15 26/52/16 25/51/15
f  27/53/16 26/52/16 24/50/15
f  19/45/12 26/52/16 27/53/16
f  19/45/12 18/44/12 26/52/16
f  28/54/17 29/55/18 30/56/17
f  31/57/18 29/55/18 28/54/17
f  32/58/19 29/55/18 31/57/18
f  32/58/19 33/59/19 29/55/18
f  34/60/20 33/59/19 32/58/19
f  34/60/20 35/61/20 33/59/19
f  36/62/21 35/61/20 34/60/20
f  36/62/21 37/63/21 35/61/20
f  38/64/22 37/63/21 36/62/21
f  38/64/22 39/65/22 37/63/21
f  40/66/23 39/65/22 38/64/22
f  40/66/23 41/67/23 39/65/22
f  42/68/24 41/67/23 40/66/23
f  42/68/24 43/69/24 41/67/23
f  44/70/25 43/69/24 42/68/24
f  44/70/25 45/71/25 43/69/24
f  46/72/26 45/71/25 44/70/25
f  46/72/26 47/73/26 45/71/25
f  48/74/27 47/73/26 46/72/26
f  48/74/27 49/75/27 47/73/26
f  50/76/11 49/75/27 48/74/27
f  50/76/11 17/43/11 49/75/27
f  18/44/12 17/43/11 50/76/11
f  20/77/28 51/78/28 52/79/28
f  51/78/28 20/77/28 22/80/28
f  52/81/29 53/82/29 54/83/29
f  53/82/29 52/81/29 51/84/29
f  53/85/30 31/86/30 28/87/30
f  22/88/30 53/85/30 51/89/30
f  21/90/30 53/85/30 22/88/30
f  25/91/30 53/85/30 21/90/30
f  26/92/30 53/85/30 25/91/30
f  18/93/30 53/85/30 26/92/30
f  50/94/30 53/85/30 18/93/30
f  48/95/30 53/85/30 50/94/30
f  46/96/30 53/85/30 48/95/30
f  44/97/30 53/85/30 46/96/30
f  42/98/30 53/85/30 44/97/30
f  40/99/30 53/85/30 42/98/30
f  38/100/30 53/85/30 40/99/30
f  36/101/30 53/85/30 38/100/30
f  34/102/30 53/85/30 36/101/30
f  32/103/30 53/85/30 34/102/30
f  31/86/30 53/85/30 32/103/30
f  30/104/17 53/105/29 28/106/17
f  53/105/29 30/104/17 54/107/29

# Mesh 'hotplate button:1' with 241 faces
g hotplate button:1
usemtl Metal/Steel Steel - Polished
f  55/108/31 56/109/32 57/110/32
f  58/111/33 56/109/32 59/112/34
f  57/110/32 56/109/32 58/111/33
f  60/113/35 58/114/36 59/115/37
f  60/113/35 61/116/35 58/114/36
f  62/117/38 61/116/35 60/113/35
f  62/117/38 63/118/38 61/116/35
f  64/119/39 63/118/38 62/117/38
f  64/119/39 65/120/39 63/118/38
f  66/121/40 65/120/39 64/119/39
f  66/121/40 67/122/40 65/120/39
f  68/123/41 67/122/40 66/121/40
f  68/123/41 69/124/41 67/122/40
f  70/125/42 69/124/41 68/123/41
f  70/125/42 71/126/42 69/124/41
f  72/127/43 71/126/42 70/125/42
f  72/127/43 73/128/43 71/126/42
f  74/129/44 73/128/43 72/127/43
f  74/129/44 75/130/44 73/128/43
f  76/131/45 75/130/44 74/129/44
f  76/131/45 77/132/45 75/130/44
f  78/133/46 77/132/45 76/131/45
f  78/133/46 79/134/46 77/132/45
f  80/135/47 79/134/46 78/133/46
f  80/135/47 81/136/47 79/134/46
f  82/137/48 81/136/47 80/135/47
f  82/137/48 83/138/48 81/136/47
f  84/139/49 83/138/48 82/137/48
f  84/139/49 85/140/49 83/138/48
f  86/141/50 85/140/49 84/139/49
f  86/141/50 87/142/51 85/140/49
f  88/143/52 87/142/51 86/141/50
f  88/143/52 89/144/52 87/142/51
f  90/145/53 89/144/52 88/143/52
f  90/145/53 91/146/53 89/144/52
f  92/147/54 91/146/53 90/145/53
f  92/147/54 93/148/54 91/146/53
f  94/149/55 93/148/54 92/147/54
f  94/149/55 95/150/55 93/148/54
f  96/151/56 95/150/55 94/149/55
f  96/151/56 97/152/56 95/150/55
f  98/153/57 97/152/56 96/151/56
f  98/153/57 99/154/57 97/152/56
f  100/155/58 99/154/57 98/153/57
f  100/155/58 101/156/58 99/154/57
f  102/157/59 101/156/58 100/155/58
f  102/157/59 103/158/59 101/156/58
f  104/159/60 103/158/59 102/157/59
f  104/159/60 105/160/60 103/158/59
f  106/161/61 105/160/60 104/159/60
f  106/161/61 107/162/61 105/160/60
f  108/163/62 107/162/61 106/161/61
f  108/163/62 109/164/62 107/162/61
f  110/165/63 109/164/62 108/163/62
f  110/165/63 111/166/63 109/164/62
f  112/167/64 111/166/63 110/165/63
f  112/167/64 113/168/64 111/166/63
f  114/169/65 113/168/64 112/167/64
f  114/169/65 115/170/66 113/168/64
f  116/171/67 115/170/66 114/169/65
f  116/171/67 117/172/67 115/170/66
f  118/173/68 117/172/67 116/171/67
f  118/173/68 119/174/68 117/172/67
f  120/175/69 119/174/68 118/173/68
f  120/175/69 121/176/69 119/174/68
f  122/177/70 121/176/69 120/175/69
f  122/177/70 123/178/70 121/176/69
f  124/179/71 123/178/70 122/177/70
f  124/179/71 125/180/71 123/178/70
f  126/181/72 125/180/71 124/179/71
f  126/181/72 127/182/72 125/180/71
f  128/183/73 127/182/72 126/181/72
f  128/183/73 129/184/73 127/182/72
f  130/185/74 129/184/73 128/183/73
f  130/185/74 131/186/74 129/184/73
f  132/187/75 131/186/74 130/185/74
f  132/187/75 133/188/75 131/186/74
f  134/189/76 133/188/75 132/187/75
f  134/189/76 135/190/76 133/188/75
f  136/191/77 135/190/76 134/189/76
f  136/191/77 137/192/77 135/190/76
f  138/193/78 137/192/77 136/191/77
f  138/193/78 139/194/78 137/192/77
f  140/195/79 139/194/78 138/193/78
f  140/195/79 141/196/79 139/194/78
f  142/197/80 141/196/79 140/195/79
f  142/197/80 143/198/81 141/196/79
f  144/199/82 143/198/81 142/197/80
f  144/199/82 145/200/82 143/198/81
f  146/201/83 145/200/82 144/199/82
f  146/201/83 147/202/83 145/200/82
f  148/203/84 147/202/83 146/201/83
f  148/203/84 149/204/84 147/202/83
f  150/205/85 149/204/84 148/203/84
f  150/205/85 151/206/85 149/204/84
f  152/207/86 151/206/85 150/205/85
f  152/207/86 153/208/86 151/206/85
f  154/209/87 153/208/86 152/207/86
f  154/209/87 155/210/87 153/208/86
f  156/211/88 155/210/87 154/209/87
f  156/211/88 157/212/88 155/210/87
f  158/213/89 157/212/88 156/211/88
f  158/213/89 159/214/89 157/212/88
f  160/215/90 159/214/89 158/213/89
f  160/215/90 161/216/90 159/214/89
f  162/217/91 161/216/90 160/215/90
f  162/217/91 163/218/91 161/216/90
f  164/219/92 163/218/91 162/217/91
f  164/219/92 165/220/92 163/218/91
f  166/221/31 165/220/92 164/219/92
f  166/221/31 55/108/31 165/220/92
f  56/109/32 55/108/31 166/221/31
f  55/222/30 54/223/30 30/224/30
f  161/225/30 47/226/30 159/227/30
f  161/225/30 45/228/30 47/226/30
f  161/225/30 43/229/30 45/228/30
f  161/225/30 41/230/30 43/229/30
f  47/226/30 157/231/30 159/227/30
f  49/232/30 157/231/30 47/226/30
f  17/233/30 157/231/30 49/232/30
f  19/234/30 157/231/30 17/233/30
f  163/235/30 41/230/30 161/225/30
f  163/235/30 39/236/30 41/230/30
f  163/235/30 37/237/30 39/236/30
f  19/234/30 155/238/30 157/231/30
f  27/239/30 155/238/30 19/234/30
f  163/235/30 35/240/30 37/237/30
f  24/241/30 155/238/30 27/239/30
f  165/242/30 35/240/30 163/235/30
f  165/242/30 33/243/30 35/240/30
f  165/242/30 29/244/30 33/243/30
f  24/241/30 153/245/30 155/238/30
f  23/246/30 153/245/30 24/241/30
f  20/247/30 153/245/30 23/246/30
f  55/222/30 29/244/30 165/242/30
f  55/222/30 30/224/30 29/244/30
f  20/247/30 151/248/30 153/245/30
f  52/249/30 151/248/30 20/247/30
f  52/249/30 149/250/30 151/248/30
f  52/249/30 147/251/30 149/250/30
f  52/249/30 145/252/30 147/251/30
f  52/249/30 143/253/30 145/252/30
f  52/249/30 141/254/30 143/253/30
f  52/249/30 139/255/30 141/254/30
f  52/249/30 137/256/30 139/255/30
f  52/249/30 135/257/30 137/256/30
f  52/249/30 133/258/30 135/257/30
f  52/249/30 131/259/30 133/258/30
f  52/249/30 129/260/30 131/259/30
f  52/249/30 127/261/30 129/260/30
f  52/249/30 125/262/30 127/261/30
f  52/249/30 123/263/30 125/262/30
f  52/249/30 121/264/30 123/263/30
f  52/249/30 119/265/30 121/264/30
f  52/249/30 117/266/30 119/265/30
f  52/249/30 115/267/30 117/266/30
f  52/249/30 113/268/30 115/267/30
f  52/249/30 111/269/30 113/268/30
f  52/249/30 109/270/30 111/269/30
f  52/249/30 107/271/30 109/270/30
f  52/249/30 105/272/30 107/271/30
f  52/249/30 103/273/30 105/272/30
f  52/249/30 101/274/30 103/273/30
f  52/249/30 99/275/30 101/274/30
f  52/249/30 97/276/30 99/275/30
f  52/249/30 95/277/30 97/276/30
f  52/249/30 93/278/30 95/277/30
f  52/249/30 91/279/30 93/278/30
f  52/249/30 89/280/30 91/279/30
f  52/249/30 87/281/30 89/280/30
f  52/249/30 85/282/30 87/281/30
f  52/249/30 83/283/30 85/282/30
f  52/249/30 81/284/30 83/283/30
f  52/249/30 79/285/30 81/284/30
f  52/249/30 77/286/30 79/285/30
f  52/249/30 75/287/30 77/286/30
f  54/223/30 75/287/30 52/249/30
f  54/223/30 73/288/30 75/287/30
f  54/223/30 71/289/30 73/288/30
f  54/223/30 69/290/30 71/289/30
f  54/223/30 67/291/30 69/290/30
f  54/223/30 65/292/30 67/291/30
f  54/223/30 63/293/30 65/292/30
f  54/223/30 61/294/30 63/293/30
f  54/223/30 58/295/30 61/294/30
f  54/223/30 57/296/30 58/295/30
f  54/223/30 55/222/30 57/296/30
f  144/297/93 148/298/93 146/299/93
f  140/300/93 144/297/93 142/301/93
f  138/302/93 144/297/93 140/300/93
f  136/303/93 144/297/93 138/302/93
f  134/304/93 144/297/93 136/303/93
f  132/305/93 144/297/93 134/304/93
f  130/306/93 144/297/93 132/305/93
f  128/307/93 144/297/93 130/306/93
f  126/308/93 144/297/93 128/307/93
f  124/309/93 144/297/93 126/308/93
f  122/310/93 144/297/93 124/309/93
f  120/311/93 144/297/93 122/310/93
f  118/312/93 144/297/93 120/311/93
f  116/313/93 144/297/93 118/312/93
f  114/314/93 144/297/93 116/313/93
f  112/315/93 144/297/93 114/314/93
f  110/316/93 144/297/93 112/315/93
f  108/317/93 144/297/93 110/316/93
f  106/318/93 144/297/93 108/317/93
f  104/319/93 144/297/93 106/318/93
f  102/320/93 144/297/93 104/319/93
f  100/321/93 144/297/93 102/320/93
f  98/322/93 144/297/93 100/321/93
f  96/323/93 144/297/93 98/322/93
f  94/324/93 144/297/93 96/323/93
f  92/325/93 144/297/93 94/324/93
f  90/326/93 144/297/93 92/325/93
f  88/327/93 144/297/93 90/326/93
f  86/328/93 144/297/93 88/327/93
f  84/329/93 144/297/93 86/328/93
f  82/330/93 144/297/93 84/329/93
f  80/331/93 144/297/93 82/330/93
f  78/332/93 144/297/93 80/331/93
f  76/333/93 144/297/93 78/332/93
f  74/334/93 144/297/93 76/333/93
f  72/335/93 144/297/93 74/334/93
f  70/336/93 144/297/93 72/335/93
f  68/337/93 144/297/93 70/336/93
f  66/338/93 144/297/93 68/337/93
f  64/339/93 144/297/93 66/338/93
f  62/340/93 144/297/93 64/339/93
f  60/341/93 144/297/93 62/340/93
f  59/342/93 144/297/93 60/341/93
f  56/343/93 144/297/93 59/342/93
f  166/344/93 144/297/93 56/343/93
f  164/345/93 144/297/93 166/344/93
f  162/346/93 144/297/93 164/345/93
f  160/347/93 144/297/93 162/346/93
f  158/348/93 144/297/93 160/347/93
f  156/349/93 144/297/93 158/348/93
f  154/350/93 144/297/93 156/349/93
f  152/351/93 144/297/93 154/350/93
f  150/352/93 144/297/93 152/351/93
f  148/298/93 144/297/93 150/352/93

# Mesh 'hotplate top:1' with 252 faces
g hotplate top:1
usemtl DefaultMaterial
f  167/353/94 168/354/1 169/355/95
f  170/356/96 169/357/97 168/358/98
f  170/356/96 171/359/96 169/357/97
f  172/360/99 171/359/96 170/356/96
f  172/360/99 173/361/99 171/359/96
f  174/362/100 173/361/99 172/360/99
f  174/362/100 175/363/100 173/361/99
f  176/364/101 175/363/100 174/362/100
f  176/364/101 177/365/101 175/363/100
f  178/366/102 177/365/101 176/364/101
f  178/366/102 179/367/102 177/365/101
f  178/366/102 180/368/103 179/367/102
f  181/369/103 180/368/103 178/366/102
f  181/369/103 182/370/104 180/368/103
f  183/371/104 182/370/104 181/369/103
f  184/372/105 182/370/104 183/371/104
f  184/372/105 185/373/105 182/370/104
f  186/374/106 185/373/105 184/372/105
f  186/374/106 187/375/106 185/373/105
f  188/376/107 187/375/106 186/374/106
f  188/376/107 189/377/107 187/375/106
f  188/376/107 190/378/108 189/377/107
f  191/379/108 190/378/108 188/376/107
f  192/380/109 190/378/108 191/379/108
f  192/380/109 193/381/109 190/378/108
f  194/382/110 193/381/109 192/380/109
f  194/382/110 195/383/110 193/381/109
f  196/384/111 195/383/110 194/382/110
f  196/384/111 197/385/111 195/383/110
f  198/386/112 197/385/111 196/384/111
f  198/386/112 199/387/112 197/385/111
f  200/388/113 199/387/112 198/386/112
f  200/388/113 201/389/114 199/387/112
f  202/390/115 201/389/114 200/388/113
f  202/390/115 203/391/115 201/389/114
f  204/392/116 203/391/115 202/390/115
f  204/392/116 205/393/116 203/391/115
f  206/394/117 205/393/116 204/392/116
f  206/394/117 207/395/117 205/393/116
f  208/396/118 207/395/117 206/394/117
f  208/396/118 209/397/118 207/395/117
f  210/398/119 209/397/118 208/396/118
f  210/398/119 211/399/119 209/397/118
f  212/400/120 211/399/119 210/398/119
f  212/400/120 213/401/120 211/399/119
f  214/402/121 213/401/120 212/400/120
f  214/402/121 215/403/121 213/401/120
f  216/404/122 215/403/121 214/402/121
f  216/404/122 217/405/122 215/403/121
f  218/406/123 217/405/122 216/404/122
f  218/406/123 219/407/123 217/405/122
f  220/408/124 219/407/123 218/406/123
f  220/408/124 221/409/124 219/407/123
f  222/410/125 221/409/124 220/408/124
f  222/410/125 223/411/125 221/409/124
f  224/412/126 223/411/125 222/410/125
f  224/412/126 225/413/126 223/411/125
f  226/414/127 225/413/126 224/412/126
f  226/414/127 227/415/127 225/413/126
f  228/416/128 227/415/127 226/414/127
f  228/416/128 229/417/128 227/415/127
f  230/418/129 229/417/128 228/416/128
f  230/418/129 231/419/129 229/417/128
f  232/420/130 231/419/129 230/418/129
f  232/420/130 233/421/131 231/419/129
f  234/422/132 233/421/131 232/420/130
f  234/422/132 235/423/132 233/421/131
f  236/424/133 235/423/132 234/422/132
f  236/424/133 237/425/133 235/423/132
f  238/426/134 237/425/133 236/424/133
f  238/426/134 239/427/134 237/425/133
f  240/428/135 239/427/134 238/426/134
f  240/428/135 241/429/135 239/427/134
f  242/430/136 241/429/135 240/428/135
f  242/430/136 243/431/136 241/429/135
f  244/432/137 243/431/136 242/430/136
f  244/432/137 245/433/137 243/431/136
f  246/434/138 245/433/137 244/432/137
f  246/434/138 247/435/138 245/433/137
f  248/436/139 247/435/138 246/434/138
f  248/436/139 249/437/139 247/435/138
f  250/438/140 249/437/139 248/436/139
f  250/438/140 251/439/140 249/437/139
f  252/440/141 251/439/140 250/438/140
f  252/440/141 253/441/141 251/439/140
f  254/442/142 253/441/141 252/440/141
f  254/442/142 255/443/142 253/441/141
f  256/444/143 255/443/142 254/442/142
f  256/444/143 257/445/143 255/443/142
f  258/446/144 257/445/143 256/444/143
f  258/446/144 259/447/144 257/445/143
f  260/448/145 259/447/144 258/446/144
f  260/448/145 261/449/145 259/447/144
f  262/450/146 261/449/145 260/448/145
f  262/450/146 263/451/146 261/449/145
f  264/452/147 263/451/146 262/450/146
f  264/452/147 265/453/148 263/451/146
f  266/454/149 265/453/148 264/452/147
f  266/454/149 267/455/149 265/453/148
f  268/456/150 267/455/149 266/454/149
f  268/456/150 269/457/150 267/455/149
f  270/458/151 269/457/150 268/456/150
f  270/458/151 271/459/151 269/457/150
f  272/460/152 271/459/151 270/458/151
f  272/460/152 273/461/152 271/459/151
f  274/462/153 273/461/152 272/460/152
f  274/462/153 275/463/153 273/461/152
f  276/464/154 275/463/153 274/462/153
f  276/464/154 277/465/154 275/463/153
f  278/466/155 277/465/154 276/464/154
f  278/466/155 279/467/155 277/465/154
f  280/468/156 279/467/155 278/466/155
f  280/468/156 281/469/156 279/467/155
f  282/470/157 281/469/156 280/468/156
f  282/470/157 283/471/157 281/469/156
f  284/472/158 283/471/157 282/470/157
f  284/472/158 285/473/158 283/471/157
f  286/474/159 285/473/158 284/472/158
f  286/474/159 287/475/159 285/473/158
f  288/476/160 287/475/159 286/474/159
f  288/476/160 289/477/160 287/475/159
f  290/478/161 289/477/160 288/476/160
f  290/478/161 291/479/161 289/477/160
f  292/480/162 291/479/161 290/478/161
f  292/480/162 293/481/162 291/479/161
f  294/482/94 293/481/162 292/480/162
f  294/482/94 167/353/94 293/481/162
f  168/354/1 167/353/94 294/482/94
f  229/483/163 225/484/163 227/485/163
f  233/486/163 229/483/163 231/487/163
f  235/488/163 229/483/163 233/486/163
f  237/489/163 229/483/163 235/488/163
f  239/490/163 229/483/163 237/489/163
f  241/491/163 229/483/163 239/490/163
f  243/492/163 229/483/163 241/491/163
f  245/493/163 229/483/163 243/492/163
f  247/494/163 229/483/163 245/493/163
f  249/495/163 229/483/163 247/494/163
f  251/496/163 229/483/163 249/495/163
f  253/497/163 229/483/163 251/496/163
f  255/498/163 229/483/163 253/497/163
f  257/499/163 229/483/163 255/498/163
f  259/500/163 229/483/163 257/499/163
f  261/501/163 229/483/163 259/500/163
f  263/502/163 229/483/163 261/501/163
f  265/503/163 229/483/163 263/502/163
f  267/504/163 229/483/163 265/503/163
f  269/505/163 229/483/163 267/504/163
f  271/506/163 229/483/163 269/505/163
f  273/507/163 229/483/163 271/506/163
f  275/508/163 229/483/163 273/507/163
f  277/509/163 229/483/163 275/508/163
f  279/510/163 229/483/163 277/509/163
f  281/511/163 229/483/163 279/510/163
f  283/512/163 229/483/163 281/511/163
f  285/513/163 229/483/163 283/512/163
f  287/514/163 229/483/163 285/513/163
f  289/515/163 229/483/163 287/514/163
f  291/516/163 229/483/163 289/515/163
f  293/517/163 229/483/163 291/516/163
f  167/518/163 229/483/163 293/517/163
f  169/519/163 229/483/163 167/518/163
f  171/520/163 229/483/163 169/519/163
f  173/521/163 229/483/163 171/520/163
f  175/522/163 229/483/163 173/521/163
f  177/523/163 229/483/163 175/522/163
f  179/524/163 229/483/163 177/523/163
f  180/525/163 229/483/163 179/524/163
f  182/526/163 229/483/163 180/525/163
f  185/527/163 229/483/163 182/526/163
f  187/528/163 229/483/163 185/527/163
f  189/529/163 229/483/163 187/528/163
f  190/530/163 229/483/163 189/529/163
f  193/531/163 229/483/163 190/530/163
f  195/532/163 229/483/163 193/531/163
f  197/533/163 229/483/163 195/532/163
f  199/534/163 229/483/163 197/533/163
f  201/535/163 229/483/163 199/534/163
f  203/536/163 229/483/163 201/535/163
f  205/537/163 229/483/163 203/536/163
f  207/538/163 229/483/163 205/537/163
f  209/539/163 229/483/163 207/538/163
f  211/540/163 229/483/163 209/539/163
f  213/541/163 229/483/163 211/540/163
f  215/542/163 229/483/163 213/541/163
f  217/543/163 229/483/163 215/542/163
f  219/544/163 229/483/163 217/543/163
f  221/545/163 229/483/163 219/544/163
f  223/546/163 229/483/163 221/545/163
f  225/484/163 229/483/163 223/546/163
f  236/547/164 240/548/164 238/549/164
f  232/550/164 236/547/164 234/551/164
f  230/552/164 236/547/164 232/550/164
f  228/553/164 236/547/164 230/552/164
f  226/554/164 236/547/164 228/553/164
f  224/555/164 236/547/164 226/554/164
f  222/556/164 236/547/164 224/555/164
f  220/557/164 236/547/164 222/556/164
f  218/558/164 236/547/164 220/557/164
f  216/559/164 236/547/164 218/558/164
f  214/560/164 236/547/164 216/559/164
f  212/561/164 236/547/164 214/560/164
f  210/562/164 236/547/164 212/561/164
f  208/563/164 236/547/164 210/562/164
f  206/564/164 236/547/164 208/563/164
f  204/565/164 236/547/164 206/564/164
f  202/566/164 236/547/164 204/565/164
f  200/567/164 236/547/164 202/566/164
f  198/568/164 236/547/164 200/567/164
f  196/569/164 236/547/164 198/568/164
f  194/570/164 236/547/164 196/569/164
f  192/571/164 236/547/164 194/570/164
f  191/572/164 236/547/164 192/571/164
f  188/573/164 236/547/164 191/572/164
f  186/574/164 236/547/164 188/573/164
f  184/575/164 236/547/164 186/574/164
f  183/576/164 236/547/164 184/575/164
f  181/577/164 236/547/164 183/576/164
f  178/578/164 236/547/164 181/577/164
f  176/579/164 236/547/164 178/578/164
f  174/580/164 236/547/164 176/579/164
f  172/581/164 236/547/164 174/580/164
f  170/582/164 236/547/164 172/581/164
f  168/583/164 236/547/164 170/582/164
f  294/584/164 236/547/164 168/583/164
f  292/585/164 236/547/164 294/584/164
f  290/586/164 236/547/164 292/585/164
f  288/587/164 236/547/164 290/586/164
f  286/588/164 236/547/164 288/587/164
f  284/589/164 236/547/164 286/588/164
f  282/590/164 236/547/164 284/589/164
f  280/591/164 236/547/164 282/590/164
f  278/592/164 236/547/164 280/591/164
f  276/593/164 236/547/164 278/592/164
f  274/594/164 236/547/164 276/593/164
f  272/595/164 236/547/164 274/594/164
f  270/596/164 236/547/164 272/595/164
f  268/597/164 236/547/164 270/596/164
f  266/598/164 236/547/164 268/597/164
f  264/599/164 236/547/164 266/598/164
f  262/600/164 236/547/164 264/599/164
f  260/601/164 236/547/164 262/600/164
f  258/602/164 236/547/164 260/601/164
f  256/603/164 236/547/164 258/602/164
f  254/604/164 236/547/164 256/603/164
f  252/605/164 236/547/164 254/604/164
f  250/606/164 236/547/164 252/605/164
f  248/607/164 236/547/164 250/606/164
f  246/608/164 236/547/164 248/607/164
f  244/609/164 236/547/164 246/608/164
f  242/610/164 236/547/164 244/609/164
f  240/548/164 236/547/164 242/610/164

