%YAML 1.1
%TAG !u! tag:unity3d.com,2011:
--- !u!1045 &1
EditorBuildSettings:
  m_ObjectHideFlags: 0
  serializedVersion: 2
  m_Scenes:
  - enabled: 1
    path: Assets/NPRE 100 Laboratory/Calorimeter/Calorimetry lab.unity
    guid: 6337f58d0bb5d3d47a7301c9ef5b5d9a
  - enabled: 1
    path: Assets/VERL-VRPrototype1.unity
    guid: 9544ed3218a12fa4ca5fd38118c2b5e8
  m_configObjects:
    com.unity.xr.management.loader_settings: {fileID: 11400000, guid: e3633b5fbf311e84a816d2ff479deaa5,
      type: 2}
    com.unity.xr.openxr.settings4: {fileID: 11400000, guid: be5b14a4ae4f8fd44bb6787fbff8ff15,
      type: 2}
    xr.sdk.mock-hmd.settings: {fileID: 11400000, guid: f19f3b2eb39ca5d48944c143a0dda923,
      type: 2}
